Chapter 7 Landscape analysis in R | Introduction to Lanscape Ecology & GIS
…
Load lab11_assignment.tif in fragstats

el1 <- raster("lab11_assignment.tif")
#show_landscape(el1)

Let’s estimate the following metrics:
+ Euclidean nearest-neighbor distance by patch
+ Total edge by class
+ Total area by landscape level

byPatch<-lsm_p_enn(el1, directions = 8, verbose = TRUE)
byPatch

## # A tibble: 99 x 6
##    layer level class    id metric  value
##    <int> <chr> <int> <int> <chr>   <dbl>
##  1     1 patch     1     1 enn     2500 
##  2     1 patch     1     2 enn      901.
##  3     1 patch     1     3 enn      901.
##  4     1 patch     1     4 enn      500 
##  5     1 patch     1     5 enn      559.
##  6     1 patch     1     6 enn      500 
##  7     1 patch     1     7 enn    17799.
##  8     1 patch     1     8 enn    20555.
##  9     1 patch     2     9 enn     9500 
## 10     1 patch     2    10 enn     3335.
## # … with 89 more rows
…
